Análisis electorales
…
maxi

# A tibble: 169 × 5
   fecha      municipio                siglas votos prc_participacion
   <date>     <chr>                    <chr>  <dbl>             <dbl>
 1 2019-04-01 Alcolea de las Peñas     PP         4                NA
 2 2008-03-01 Blasconuño de Matacabras PP        11               100
 3 2008-03-01 San Esteban de los Patos PSOE      13               100
 4 2008-03-01 Vileña                   PP        22               100
 5 2008-03-01 Villaldemiro             PP        49               100
 6 2008-03-01 Castell de Cabres        PSOE       6               100
 7 2008-03-01 Castilnuevo              PP         5               100
 8 2008-03-01 Tortuero                 PSOE      15               100
 9 2008-03-01 Valdesotos               PP        19               100
10 2008-03-01 Gallinero de Cameros     PP        14               100
# ℹ 159 more rows
…
mini

# A tibble: 30 × 5
   fecha      municipio  siglas  votos prc_participacion
   <date>     <chr>      <chr>   <dbl>             <dbl>
 1 2008-03-01 Orexa      EAJPNV      1              2.11
 2 2008-03-01 Baliarrain EAJPNV      8             16.0 
 3 2008-03-01 Lizartza   EAJPNV     43             17.0 
 4 2008-03-01 Goizueta   OTROS      99             19.5 
 5 2008-03-01 Elduain    EAJPNV     25             24.0 
 6 2008-03-01 Leaburu    EAJPNV     51             24.5 
 7 2008-03-01 Aduna      EAJPNV     31             24.6 
 8 2008-03-01 Errezil    EAJPNV    107             25.3 
 9 2008-03-01 Aulesti    EAJPNV    124             25.4 
10 2008-03-01 Belauntza  EHBILDU    24             25.4 
# ℹ 20 more rows
…
error_casa_encuestadora <- votos_partido |> 
  inner_join(int_voto_casa, by=c("year", "month", "siglas"="partidos")) |> 
  group_by(year,month,siglas, id_pollster) |> 
  mutate(est_voto_sigla=mean(est_voto_sigla)) |> 
  distinct(id_pollster, .keep_all=TRUE) |> 
  mutate(diferencia = est_voto_sigla - prop_voto ) |> 
  ungroup() |> 
  select(fecha, siglas, id_pollster, pollster, prop_voto, est_voto_sigla, diferencia)

error_casa_encuestadora

# A tibble: 880 × 7
   fecha      siglas id_pollster pollster    prop_voto est_voto_sigla diferencia
   <date>     <chr>  <chr>       <chr>           <dbl>          <dbl>      <dbl>
 1 2008-03-01 BNG    pollster-18 SIGMA DOS       0.835           0.8     -0.0354
 2 2008-03-01 BNG    pollster-51 OBRADOIRO …     0.835           1        0.165 
 3 2008-03-01 BNG    pollster-38 SONDAXE         0.835           1.1      0.265 
 4 2008-03-01 BNG    pollster-55 APPEND          0.835           0.6     -0.235 
 5 2008-03-01 BNG    pollster-19 CIS             0.835           0.9      0.0646
 6 2008-03-01 BNG    pollster-43 CELESTE-TEL     0.835           1.45     0.615 
 7 2008-03-01 BNG    pollster-57 IBERCONSUL…     0.835           1.45     0.615 
 8 2008-03-01 BNG    pollster-45 NOXA            0.835           1        0.165 
 9 2008-03-01 CIU    pollster-49 GESOP           3.09            3.93     0.837 
10 2008-03-01 CIU    pollster-48 DEMOMÉTRICA     3.09            9.5      6.41  
# ℹ 870 more rows
…
